{
    "status": "SUCCESS",
    "message": "Audit logs retrieved successfully",
    "responseCode": 20000,
    "data": [
        {
            "eventId": "beb3f9a6-8f19-4453-aa0f-aff798423072",
            "eventType": "PRODUCT_CREATED",
            "eventCategory": "PRODUCT",
            "eventSource": "ECOMMERCE_WEB",
            "logType": "APP_LOG",
            "logLevel": "INFO",
            "userType": "AGENT",
            "userId": "AGENT-001",
            "userName": "AGENT-001",
            "userEmail": null,
            "userRole": null,
            "entityType": "PRODUCT_CREATED",
            "entityId": "nnnn",
            "entityName": "hbhh",
            "tenantCode": "PA",
            "countryCode": "PA",
            "channel": "WEB",
            "sessionId": null,
            "ipAddress": null,
            "browserInfo": null,
            "action": "CREATE",
            "value": {
                "code": "nnnn",
                "name": "hbhh",
                "journeyCode": "JOURNEY-2026-PROD-1EE76940-001"
            },
            "changeSummary": "Log date Time :2026-01-30 09:33:10.728, Log level:INFO,Container id:cc-product-5b59b67684-kzt5p/10.70.74.39,Trace ID :null, SpanID:null Basic Product Created for tenant: PA, with  code: nnnnwith journey statusIN_PROGRESS",
            "recipient": null,
            "subject": null,
            "mobile": null,
            "gateway": null,
            "provider": null,
            "correlationId": null,
            "parentEventId": null,
            "sourceService": "cc-product",
            "eventTimestamp": "2026-01-30T09:33:10.730316Z",
            "metadata": null
        },
        {
            "eventId": "393df633-90a1-4119-aa03-a57ee400e8c7",
            "eventType": "PRODUCT_CREATED",
            "eventCategory": "PRODUCT",
            "eventSource": "ECOMMERCE_WEB",
            "logType": "APP_LOG",
            "logLevel": "INFO",
            "userType": "AGENT",
            "userId": "AGENT-001",
            "userName": "AGENT-001",
            "userEmail": null,
            "userRole": null,
            "entityType": "PRODUCT_CREATED",
            "entityId": "SAM-UNLIMITE602",
            "entityName": "SAMUNG-8092",
            "tenantCode": "PA",
            "countryCode": "PA",
            "channel": "WEB",
            "sessionId": null,
            "ipAddress": null,
            "browserInfo": null,
            "action": "CREATE",
            "value": {
                "code": "SAM-UNLIMITE602",
                "name": "SAMUNG-8092",
                "journeyCode": null
            },
            "changeSummary": "Log date Time :2026-01-30 08:05:27.109, Log level:INFO,Container id:cc-product-5b59b67684-kzt5p/10.70.74.39,Trace ID :null, SpanID:null Basic Product Created for tenant: PA, with  code: SAM-UNLIMITE602with journey statusN/A",
            "recipient": null,
            "subject": null,
            "mobile": null,
            "gateway": null,
            "provider": null,
            "correlationId": null,
            "parentEventId": null,
            "sourceService": "cc-product",
            "eventTimestamp": "2026-01-30T08:05:27.109772Z",
            "metadata": null
        },
        {
            "eventId": "d538259e-ed0e-4fbc-b6f3-4979791a7a95",
            "eventType": "PRODUCT_CREATED",
            "eventCategory": "PRODUCT",
            "eventSource": "ECOMMERCE_WEB",
            "logType": "APP_LOG",
            "logLevel": "INFO",
            "userType": "AGENT",
            "userId": "AGENT-001",
            "userName": "AGENT-001",
            "userEmail": null,
            "userRole": null,
            "entityType": "PRODUCT_CREATED",
            "entityId": "SAM-UNLIMITE601",
            "entityName": "SAMUNG-8091",
            "tenantCode": "PA",
            "countryCode": "PA",
            "channel": "WEB",
            "sessionId": null,
            "ipAddress": null,
            "browserInfo": null,
            "action": "CREATE",
            "value": {
                "code": "SAM-UNLIMITE601",
                "name": "SAMUNG-8091",
                "journeyCode": null
            },
            "changeSummary": "Log date Time :2026-01-30 08:05:26.655, Log level:INFO,Container id:cc-product-5b59b67684-kzt5p/10.70.74.39,Trace ID :null, SpanID:null Basic Product Created for tenant: PA, with  code: SAM-UNLIMITE601with journey statusN/A",
            "recipient": null,
            "subject": null,
            "mobile": null,
            "gateway": null,
            "provider": null,
            "correlationId": null,
            "parentEventId": null,
            "sourceService": "cc-product",
            "eventTimestamp": "2026-01-30T08:05:26.663291Z",
            "metadata": null
        },
        {
            "eventId": "1874a9d0-1a3c-43be-b6c8-f44eb74836d7",
            "eventType": "PRODUCT_DELETED",
            "eventCategory": "PRODUCT",
            "eventSource": "ECOMMERCE_WEB",
            "logType": "APP_LOG",
            "logLevel": "INFO",
            "userType": "AGENT",
            "userId": "AGENT-001",
            "userName": "AGENT-001",
            "userEmail": null,
            "userRole": null,
            "entityType": "PRODUCT_DELETED",
            "entityId": "Idcupiditateconse",
            "entityName": "Todd Davenport",
            "tenantCode": "PA",
            "countryCode": "PA",
            "channel": "WEB",
            "sessionId": null,
            "ipAddress": null,
            "browserInfo": null,
            "action": "DELETE",
            "value": {
                "code": "Idcupiditateconse",
                "name": "Todd Davenport",
                "product": "com.one97.lla.ccProduct.entity.Product@ac38b3d"
            },
            "changeSummary": "Log date Time :2026-01-30 07:12:30.182, Log level:INFO,Container id:cc-product-867bfdb455-kv7xr/10.70.75.245,Trace ID :db8d2f6ab9d8650c6631f7edc13d5530, SpanID:e4739a46fbaa012bProduct Deleted for tenant: PA, with  code: Idcupiditateconseand  nameTodd Davenport",
            "recipient": null,
            "subject": null,
            "mobile": null,
            "gateway": null,
            "provider": null,
            "correlationId": null,
            "parentEventId": null,
            "sourceService": "cc-product",
            "eventTimestamp": "2026-01-30T07:12:30.186955Z",
            "metadata": null
        },
        {
            "eventId": "6cd18f64-1d73-4e8b-8907-3e16c2ab7416",
            "eventType": "PRODUCT_CREATED",
            "eventCategory": "PRODUCT",
            "eventSource": "ECOMMERCE_WEB",
            "logType": "APP_LOG",
            "logLevel": "INFO",
            "userType": "AGENT",
            "userId": "AGENT-001",
            "userName": "AGENT-001",
            "userEmail": null,
            "userRole": null,
            "entityType": "PRODUCT_CREATED",
            "entityId": "Quoundenullaculpa",
            "entityName": "Danielle Myers",
            "tenantCode": "PA",
            "countryCode": "PA",
            "channel": "WEB",
            "sessionId": null,
            "ipAddress": null,
            "browserInfo": null,
            "action": "CREATE",
            "value": {
                "code": "Quoundenullaculpa",
                "name": "Danielle Myers",
                "journeyCode": "JOURNEY-2026-PROD-EDAB490B-008"
            },
            "changeSummary": "Log date Time :2026-01-30 07:00:49.548, Log level:INFO,Container id:cc-product-867bfdb455-kv7xr/10.70.75.245,Trace ID :null, SpanID:null Basic Product Created for tenant: PA, with  code: Quoundenullaculpawith journey statusIN_PROGRESS",
            "recipient": null,
            "subject": null,
            "mobile": null,
            "gateway": null,
            "provider": null,
            "correlationId": null,
            "parentEventId": null,
            "sourceService": "cc-product",
            "eventTimestamp": "2026-01-30T07:00:49.548677Z",
            "metadata": null
        },
        {
            "eventId": "ac5d88ed-d340-4d9f-9976-f0b3d8131e54",
            "eventType": "PRODUCT_CREATED",
            "eventCategory": "PRODUCT",
            "eventSource": "ECOMMERCE_WEB",
            "logType": "APP_LOG",
            "logLevel": "INFO",
            "userType": "AGENT",
            "userId": "AGENT-001",
            "userName": "AGENT-001",
            "userEmail": null,
            "userRole": null,
            "entityType": "PRODUCT_CREATED",
            "entityId": "internet_MEGA_1000",
            "entityName": "internet_MEGA_1000",
            "tenantCode": "PA",
            "countryCode": "PA",
            "channel": "WEB",
            "sessionId": null,
            "ipAddress": null,
            "browserInfo": null,
            "action": "CREATE",
            "value": {
                "code": "internet_MEGA_1000",
                "name": "internet_MEGA_1000",
                "journeyCode": "JOURNEY-2026-PROD-C7116CF7-006"
            },
            "changeSummary": "Log date Time :2026-01-29 11:22:49.252, Log level:INFO,Container id:cc-product-867bfdb455-kv7xr/10.70.75.245,Trace ID :null, SpanID:null Basic Product Created for tenant: PA, with  code: internet_MEGA_1000with journey statusIN_PROGRESS",
            "recipient": null,
            "subject": null,
            "mobile": null,
            "gateway": null,
            "provider": null,
            "correlationId": null,
            "parentEventId": null,
            "sourceService": "cc-product",
            "eventTimestamp": "2026-01-29T11:22:49.253113Z",
            "metadata": null
        },
        {
            "eventId": "da0e2460-59cd-4991-bcac-1d5561a88da5",
            "eventType": "PRODUCT_CREATED",
            "eventCategory": "PRODUCT",
            "eventSource": "ECOMMERCE_WEB",
            "logType": "APP_LOG",
            "logLevel": "INFO",
            "userType": "AGENT",
            "userId": "AGENT-001",
            "userName": "AGENT-001",
            "userEmail": null,
            "userRole": null,
            "entityType": "PRODUCT_CREATED",
            "entityId": "Erroriddoloremcom",
            "entityName": "Slade Barton",
            "tenantCode": "PA",
            "countryCode": "PA",
            "channel": "WEB",
            "sessionId": null,
            "ipAddress": null,
            "browserInfo": null,
            "action": "CREATE",
            "value": {
                "code": "Erroriddoloremcom",
                "name": "Slade Barton",
                "journeyCode": "JOURNEY-2026-PROD-E7FF70D1-005"
            },
            "changeSummary": "Log date Time :2026-01-29 11:16:20.956, Log level:INFO,Container id:cc-product-867bfdb455-kv7xr/10.70.75.245,Trace ID :null, SpanID:null Basic Product Created for tenant: PA, with  code: Erroriddoloremcomwith journey statusIN_PROGRESS",
            "recipient": null,
            "subject": null,
            "mobile": null,
            "gateway": null,
            "provider": null,
            "correlationId": null,
            "parentEventId": null,
            "sourceService": "cc-product",
            "eventTimestamp": "2026-01-29T11:16:20.956540Z",
            "metadata": null
        },
        {
            "eventId": "4eed1384-ef8f-4241-b0fa-fd2afb655f0c",
            "eventType": "PRODUCT_CREATED",
            "eventCategory": "PRODUCT",
            "eventSource": "ECOMMERCE_WEB",
            "logType": "APP_LOG",
            "logLevel": "INFO",
            "userType": "AGENT",
            "userId": "AGENT-001",
            "userName": "AGENT-001",
            "userEmail": null,
            "userRole": null,
            "entityType": "PRODUCT_CREATED",
            "entityId": "Inciduntdoloreet",
            "entityName": "Alden Higgins",
            "tenantCode": "PA",
            "countryCode": "PA",
            "channel": "WEB",
            "sessionId": null,
            "ipAddress": null,
            "browserInfo": null,
            "action": "CREATE",
            "value": {
                "code": "Inciduntdoloreet",
                "name": "Alden Higgins",
                "journeyCode": "JOURNEY-2026-PROD-8077FCF6-003"
            },
            "changeSummary": "Log date Time :2026-01-29 10:45:33.191, Log level:INFO,Container id:cc-product-867bfdb455-kv7xr/10.70.75.245,Trace ID :null, SpanID:null Basic Product Created for tenant: PA, with  code: Inciduntdoloreetwith journey statusIN_PROGRESS",
            "recipient": null,
            "subject": null,
            "mobile": null,
            "gateway": null,
            "provider": null,
            "correlationId": null,
            "parentEventId": null,
            "sourceService": "cc-product",
            "eventTimestamp": "2026-01-29T10:45:33.191788Z",
            "metadata": null
        },
        {
            "eventId": "6688875b-b71d-4de3-bb9a-8675e5f4c104",
            "eventType": "PRODUCT_CREATED",
            "eventCategory": "PRODUCT",
            "eventSource": "ECOMMERCE_WEB",
            "logType": "APP_LOG",
            "logLevel": "INFO",
            "userType": "AGENT",
            "userId": "AGENT-001",
            "userName": "AGENT-001",
            "userEmail": null,
            "userRole": null,
            "entityType": "PRODUCT_CREATED",
            "entityId": "Quaeidexcepturipo",
            "entityName": "Bruno Douglas",
            "tenantCode": "PA",
            "countryCode": "PA",
            "channel": "WEB",
            "sessionId": null,
            "ipAddress": null,
            "browserInfo": null,
            "action": "CREATE",
            "value": {
                "code": "Quaeidexcepturipo",
                "name": "Bruno Douglas",
                "journeyCode": "JOURNEY-2026-PROD-A1F8D038-002"
            },
            "changeSummary": "Log date Time :2026-01-29 10:33:07.885, Log level:INFO,Container id:cc-product-867bfdb455-kv7xr/10.70.75.245,Trace ID :null, SpanID:null Basic Product Created for tenant: PA, with  code: Quaeidexcepturipowith journey statusIN_PROGRESS",
            "recipient": null,
            "subject": null,
            "mobile": null,
            "gateway": null,
            "provider": null,
            "correlationId": null,
            "parentEventId": null,
            "sourceService": "cc-product",
            "eventTimestamp": "2026-01-29T10:33:07.885860Z",
            "metadata": null
        },
        {
            "eventId": "d97b91ca-7e3f-4cc1-98bf-20e133ee65bd",
            "eventType": "PRODUCT_CREATED",
            "eventCategory": "PRODUCT",
            "eventSource": "ECOMMERCE_WEB",
            "logType": "APP_LOG",
            "logLevel": "INFO",
            "userType": "AGENT",
            "userId": "AGENT-001",
            "userName": "AGENT-001",
            "userEmail": null,
            "userRole": null,
            "entityType": "PRODUCT_CREATED",
            "entityId": "Aliasvitaeillume",
            "entityName": "Xena Sutton",
            "tenantCode": "PA",
            "countryCode": "PA",
            "channel": "WEB",
            "sessionId": null,
            "ipAddress": null,
            "browserInfo": null,
            "action": "CREATE",
            "value": {
                "code": "Aliasvitaeillume",
                "name": "Xena Sutton",
                "journeyCode": "JOURNEY-2026-PROD-AD2A1E8A-008"
            },
            "changeSummary": "Log date Time :2026-01-29 07:46:01.292, Log level:INFO,Container id:cc-product-79c466dbcc-7m8k2/10.70.74.39,Trace ID :null, SpanID:null Basic Product Created for tenant: PA, with  code: Aliasvitaeillumewith journey statusIN_PROGRESS",
            "recipient": null,
            "subject": null,
            "mobile": null,
            "gateway": null,
            "provider": null,
            "correlationId": null,
            "parentEventId": null,
            "sourceService": "cc-product",
            "eventTimestamp": "2026-01-29T07:46:01.292675Z",
            "metadata": null
        }
    ],
    "pagination": {
        "currentPage": 0,
        "pageSize": 10,
        "totalElements": 491,
        "totalPages": 50,
        "hasNext": true,
        "hasPrevious": false,
        "first": true,
        "last": false
    }
}