{
    "status": "SUCCESS",
    "message": "Audit events for log type APP_LOG retrieved successfully",
    "responseCode": 20000,
    "data": [
        {
            "eventId": "2bf28032-5898-4542-a8c4-9c68fa53f16c",
            "eventType": "PRODUCT_CREATED",
            "eventCategory": "PRODUCT",
            "eventSource": "ECOMMERCE_WEB",
            "logType": "APP_LOG",
            "logLevel": "INFO",
            "userType": "AGENT",
            "userId": "AGENT-001",
            "userName": "AGENT-001",
            "userEmail": null,
            "userRole": null,
            "entityType": "PRODUCT_CREATED",
            "entityId": "Iphone-21756",
            "entityName": "Iphone 21756",
            "tenantCode": "PA",
            "countryCode": "PA",
            "channel": "WEB",
            "sessionId": null,
            "ipAddress": null,
            "browserInfo": null,
            "action": "CREATE",
            "value": {
                "code": "Iphone-21756",
                "name": "Iphone 21756",
                "journeyCode": "JOURNEY-2026-PROD-47064557-001"
            },
            "changeSummary": "Log date Time :2026-01-16 05:15:12.269, Log level:INFO,Container id:cc-product-58487c76f5-d59h5/10.70.75.137,Trace ID :null, SpanID:null Basic Product Created for tenant: PA, with  code: Iphone-21756with journey statusIN_PROGRESS",
            "recipient": null,
            "subject": null,
            "mobile": null,
            "gateway": null,
            "provider": null,
            "correlationId": null,
            "parentEventId": null,
            "sourceService": "cc-product",
            "eventTimestamp": "2026-01-16T05:15:12.276760Z",
            "metadata": null
        },
        {
            "eventId": "9db3daa2-ad22-4fa7-8630-e22ab44ea61a",
            "eventType": "PRODUCT_CREATED",
            "eventCategory": "PRODUCT",
            "eventSource": "ECOMMERCE_WEB",
            "logType": "APP_LOG",
            "logLevel": "INFO",
            "userType": "AGENT",
            "userId": "AGENT-001",
            "userName": "AGENT-001",
            "userEmail": null,
            "userRole": null,
            "entityType": "PRODUCT_CREATED",
            "entityId": "Iphone-21456",
            "entityName": "Iphone 21456",
            "tenantCode": "PA",
            "countryCode": "PA",
            "channel": "WEB",
            "sessionId": null,
            "ipAddress": null,
            "browserInfo": null,
            "action": "CREATE",
            "value": {
                "code": "Iphone-21456",
                "name": "Iphone 21456",
                "journeyCode": "JOURNEY-2026-PROD-056A8BF0-001"
            },
            "changeSummary": "Log date Time :2026-01-16 05:05:35.503, Log level:INFO,Container id:cc-product-5bbb7b4674-k2l64/10.70.75.164,Trace ID :null, SpanID:null Basic Product Created for tenant: PA, with  code: Iphone-21456with journey statusIN_PROGRESS",
            "recipient": null,
            "subject": null,
            "mobile": null,
            "gateway": null,
            "provider": null,
            "correlationId": null,
            "parentEventId": null,
            "sourceService": "cc-product",
            "eventTimestamp": "2026-01-16T05:05:35.510985Z",
            "metadata": null
        },
        {
            "eventId": "9897aeb2-61ce-4605-af29-1c405502b308",
            "eventType": "PRODUCT_DELETED",
            "eventCategory": "PRODUCT",
            "eventSource": "ECOMMERCE_WEB",
            "logType": "APP_LOG",
            "logLevel": "INFO",
            "userType": "AGENT",
            "userId": "AGENT-001",
            "userName": "AGENT-001",
            "userEmail": null,
            "userRole": null,
            "entityType": "PRODUCT_DELETED",
            "entityId": "DB_TEST_PROD_opam4h",
            "entityName": "Qyipepxzlb",
            "tenantCode": "PA",
            "countryCode": "PA",
            "channel": "WEB",
            "sessionId": null,
            "ipAddress": null,
            "browserInfo": null,
            "action": "DELETE",
            "value": {
                "code": "DB_TEST_PROD_opam4h",
                "name": "Qyipepxzlb",
                "product": "com.one97.lla.ccProduct.entity.Product@531f993d"
            },
            "changeSummary": "Log date Time :2026-01-15 18:16:02.209, Log level:INFO,Container id:cc-product-558d77974d-85ffj/10.70.75.245,Trace ID :c9142143f9e6f768f1c154f1b6c7adff, SpanID:be0b7a87f853deb7Product Deleted for tenant: PA, with  code: DB_TEST_PROD_opam4hand  nameQyipepxzlb",
            "recipient": null,
            "subject": null,
            "mobile": null,
            "gateway": null,
            "provider": null,
            "correlationId": null,
            "parentEventId": null,
            "sourceService": "cc-product",
            "eventTimestamp": "2026-01-15T18:16:02.218806Z",
            "metadata": null
        },
        {
            "eventId": "0dc798bc-ee94-490b-94e4-5a10a4aad8e3",
            "eventType": "PRODUCT_DELETED",
            "eventCategory": "PRODUCT",
            "eventSource": "ECOMMERCE_WEB",
            "logType": "APP_LOG",
            "logLevel": "INFO",
            "userType": "AGENT",
            "userId": "AGENT-001",
            "userName": "AGENT-001",
            "userEmail": null,
            "userRole": null,
            "entityType": "PRODUCT_DELETED",
            "entityId": "DB_TEST_PROD_wft3if",
            "entityName": "Aasjsmbrmv",
            "tenantCode": "PA",
            "countryCode": "PA",
            "channel": "WEB",
            "sessionId": null,
            "ipAddress": null,
            "browserInfo": null,
            "action": "DELETE",
            "value": {
                "code": "DB_TEST_PROD_wft3if",
                "name": "Aasjsmbrmv",
                "product": "com.one97.lla.ccProduct.entity.Product@40b66d5c"
            },
            "changeSummary": "Log date Time :2026-01-15 17:53:23.974, Log level:INFO,Container id:cc-product-668bb45657-k57g4/10.70.74.143,Trace ID :null, SpanID:nullProduct Deleted for tenant: PA, with  code: DB_TEST_PROD_wft3ifand  nameAasjsmbrmv",
            "recipient": null,
            "subject": null,
            "mobile": null,
            "gateway": null,
            "provider": null,
            "correlationId": null,
            "parentEventId": null,
            "sourceService": "cc-product",
            "eventTimestamp": "2026-01-15T17:53:23.975461Z",
            "metadata": null
        },
        {
            "eventId": "7c2f94f2-9793-446b-9b28-d5d01db29e4b",
            "eventType": "PRODUCT_DELETED",
            "eventCategory": "PRODUCT",
            "eventSource": "ECOMMERCE_WEB",
            "logType": "APP_LOG",
            "logLevel": "INFO",
            "userType": "AGENT",
            "userId": "AGENT-001",
            "userName": "AGENT-001",
            "userEmail": null,
            "userRole": null,
            "entityType": "PRODUCT_DELETED",
            "entityId": "DB_TEST_PROD_vqcw81",
            "entityName": "Itizlgctyp",
            "tenantCode": "PA",
            "countryCode": "PA",
            "channel": "WEB",
            "sessionId": null,
            "ipAddress": null,
            "browserInfo": null,
            "action": "DELETE",
            "value": {
                "code": "DB_TEST_PROD_vqcw81",
                "name": "Itizlgctyp",
                "product": "com.one97.lla.ccProduct.entity.Product@7cbc266b"
            },
            "changeSummary": "Log date Time :2026-01-15 17:51:13.833, Log level:INFO,Container id:cc-product-668bb45657-k57g4/10.70.74.143,Trace ID :null, SpanID:nullProduct Deleted for tenant: PA, with  code: DB_TEST_PROD_vqcw81and  nameItizlgctyp",
            "recipient": null,
            "subject": null,
            "mobile": null,
            "gateway": null,
            "provider": null,
            "correlationId": null,
            "parentEventId": null,
            "sourceService": "cc-product",
            "eventTimestamp": "2026-01-15T17:51:13.844197Z",
            "metadata": null
        }
    ],
    "pagination": {
        "currentPage": 0,
        "pageSize": 5,
        "totalElements": 368,
        "totalPages": 74,
        "hasNext": true,
        "hasPrevious": false,
        "first": true,
        "last": false
    }
}